{
    "einheiten": [
        "g/l",
        "Meter",
        "m²",
        "m",
        "m/min",
        "Zahlen",
        "Liter",
        "L",
        "l",
        "kg/L",
        "%",
        "‰",
        "Gewicht-%",
        "EC",
        "cm",
        "C°",
        "c°",
        "l/ha",
        "L/ha",
        "min",
        "d",
        "Lux",
        "L/m²",
        "l/m²",
        "mm",
        "m³/h",
        "mS/cm"
    ]
}